[
  {
    "id": "1",
    "title": "Aqidah Seorang Muslim",
    "description": "Lorem ipsum dolor sit amet, consectetur adipiscing elit. Proin finibus laoreet lectus. In tempor dolor at tortor dictum, a viverra neque dignissim. In vel libero eget turpis volutpat pellentesque. Mauris cursus risus sit amet egestas dapibus. Suspendisse molestie ex a velit blandit accumsan. Nullam odio est, porttitor quis lacinia non, ullamcorper eget risus.",
    "ustadz": "Dr. Syafiq Reza Basalamah, M.A",
    "thumbnailUrl": "https://img.youtube.com/vi/LoU7fPI47rk/maxresdefault.jpg",
    "videoUrl": "https://www.youtube.com/embed/LoU7fPI47rk?si=xpdEZB56DP1Kl1Cw",
    "duration": 166,
    "category": "aqidah"
  },
  {
    "id": "2",
    "title": "Akhlak Baik Bisa Dipelajari",
    "description": "Lorem ipsum dolor sit amet, consectetur adipiscing elit. Proin finibus laoreet lectus. In tempor dolor at tortor dictum, a viverra neque dignissim. In vel libero eget turpis volutpat pellentesque. Mauris cursus risus sit amet egestas dapibus. Suspendisse molestie ex a velit blandit accumsan. Nullam odio est, porttitor quis lacinia non, ullamcorper eget risus.",
    "ustadz": "Ammi Nur Baits, S.T., B.A",
    "thumbnailUrl": "https://img.youtube.com/vi/tIK_ZdKArjM/maxresdefault.jpg",
    "videoUrl": "https://www.youtube.com/embed/tIK_ZdKArjM?si=HbL3oRM8gNR90yse",
    "duration": 94,
    "category": "akhlak"
  },
  {
    "id": "3",
    "title": "10 Kaidah Penting Dalam Ibadah",
    "description": "Lorem ipsum dolor sit amet, consectetur adipiscing elit. Proin finibus laoreet lectus. In tempor dolor at tortor dictum, a viverra neque dignissim. In vel libero eget turpis volutpat pellentesque. Mauris cursus risus sit amet egestas dapibus. Suspendisse molestie ex a velit blandit accumsan. Nullam odio est, porttitor quis lacinia non, ullamcorper eget risus.",
    "ustadz": "Dr. Firanda Andirja, Lc., M.A",
    "thumbnailUrl": "https://img.youtube.com/vi/gK7oSIdn7f0/maxresdefault.jpg",
    "videoUrl": "https://www.youtube.com/embed/gK7oSIdn7f0?si=fv-hGUKiwrxz-AzN",
    "duration": 135,
    "category": "ibadah"
  },
  {
    "id": "4",
    "title": "Bermuamalah Sesuai Tuntunan Rasulullah",
    "description": "Lorem ipsum dolor sit amet, consectetur adipiscing elit. Proin finibus laoreet lectus. In tempor dolor at tortor dictum, a viverra neque dignissim. In vel libero eget turpis volutpat pellentesque. Mauris cursus risus sit amet egestas dapibus. Suspendisse molestie ex a velit blandit accumsan. Nullam odio est, porttitor quis lacinia non, ullamcorper eget risus.",
    "ustadz": "Dr. Syafiq Reza Basalamah, M.A",
    "thumbnailUrl": "https://img.youtube.com/vi/JLpqyEPEPFE/maxresdefault.jpg",
    "videoUrl": "https://www.youtube.com/embed/JLpqyEPEPFE?si=B8-kcKdJsUcyqrqS",
    "duration": 102,
    "category": "muamalah"
  },
  {
    "id": "5",
    "title": "Sukses Dalam Mendidik Anak",
    "description": "Lorem ipsum dolor sit amet, consectetur adipiscing elit. Proin finibus laoreet lectus. In tempor dolor at tortor dictum, a viverra neque dignissim. In vel libero eget turpis volutpat pellentesque. Mauris cursus risus sit amet egestas dapibus. Suspendisse molestie ex a velit blandit accumsan. Nullam odio est, porttitor quis lacinia non, ullamcorper eget risus.",
    "ustadz": "Dr. Khalid Basalaman, M.A",
    "thumbnailUrl": "https://img.youtube.com/vi/9zCveNRHLQ4/maxresdefault.jpg",
    "videoUrl": "https://www.youtube.com/embed/9zCveNRHLQ4?si=20LFM9ENNOG3ypUA",
    "duration": 56,
    "category": "parenting"
  },
  {
    "id": "6",
    "title": "Sumber Aqidah yang Benar dan Sumber Aqidah yang Salah",
    "description": "Lorem ipsum dolor sit amet, consectetur adipiscing elit. Proin finibus laoreet lectus. In tempor dolor at tortor dictum, a viverra neque dignissim. In vel libero eget turpis volutpat pellentesque. Mauris cursus risus sit amet egestas dapibus. Suspendisse molestie ex a velit blandit accumsan. Nullam odio est, porttitor quis lacinia non, ullamcorper eget risus.",
    "ustadz": "Dr. Firanda Andirja, Lc., M.A",
    "thumbnailUrl": "https://img.youtube.com/vi/owl6FgNlZ_c/maxresdefault.jpg",
    "videoUrl": "https://www.youtube.com/embed/owl6FgNlZ_c?si=yR1y7czeAyy7EQDn",
    "duration": 71,
    "category": "aqidah"
  },
  {
    "id": "7",
    "title": "Akhlak Rasulullah",
    "description": "Lorem ipsum dolor sit amet, consectetur adipiscing elit. Proin finibus laoreet lectus. In tempor dolor at tortor dictum, a viverra neque dignissim. In vel libero eget turpis volutpat pellentesque. Mauris cursus risus sit amet egestas dapibus. Suspendisse molestie ex a velit blandit accumsan. Nullam odio est, porttitor quis lacinia non, ullamcorper eget risus.",
    "ustadz": "Dr. Khalid Basalaman, M.A",
    "thumbnailUrl": "https://img.youtube.com/vi/58-tm9ZXhgE/maxresdefault.jpg",
    "videoUrl": "https://www.youtube.com/embed/58-tm9ZXhgE?si=NFiS4KvxjAApd-z4",
    "duration": 65,
    "category": "akhlak"
  },
  {
    "id": "8",
    "title": "Beribadah Tanpa Panduan",
    "description": "Lorem ipsum dolor sit amet, consectetur adipiscing elit. Proin finibus laoreet lectus. In tempor dolor at tortor dictum, a viverra neque dignissim. In vel libero eget turpis volutpat pellentesque. Mauris cursus risus sit amet egestas dapibus. Suspendisse molestie ex a velit blandit accumsan. Nullam odio est, porttitor quis lacinia non, ullamcorper eget risus.",
    "ustadz": "Ammi Nur Baits, S.T., B.A",
    "thumbnailUrl": "https://img.youtube.com/vi/NERSGTuD4fE/maxresdefault.jpg",
    "videoUrl": "https://www.youtube.com/embed/NERSGTuD4fE?si=qUDdUDIw5QjJfc7U",
    "duration": 70,
    "category": "ibadah"
  },
  {
    "id": "9",
    "title": "Peran Fiqih Muamalah Dalam Kehidupan Sehari-Hari",
    "description": "Lorem ipsum dolor sit amet, consectetur adipiscing elit. Proin finibus laoreet lectus. In tempor dolor at tortor dictum, a viverra neque dignissim. In vel libero eget turpis volutpat pellentesque. Mauris cursus risus sit amet egestas dapibus. Suspendisse molestie ex a velit blandit accumsan. Nullam odio est, porttitor quis lacinia non, ullamcorper eget risus.",
    "ustadz": "Ammi Nur Baits, S.T., B.A",
    "thumbnailUrl": "https://img.youtube.com/vi/FQKe0NJ5X94/maxresdefault.jpg",
    "videoUrl": "https://www.youtube.com/embed/FQKe0NJ5X94?si=fjp50cHENyvErPKq",
    "duration": 100,
    "category": "muamalah"
  },
  {
    "id": "10",
    "title": "Belajar Parenting Dari Nabi",
    "description": "Lorem ipsum dolor sit amet, consectetur adipiscing elit. Proin finibus laoreet lectus. In tempor dolor at tortor dictum, a viverra neque dignissim. In vel libero eget turpis volutpat pellentesque. Mauris cursus risus sit amet egestas dapibus. Suspendisse molestie ex a velit blandit accumsan. Nullam odio est, porttitor quis lacinia non, ullamcorper eget risus.",
    "ustadz": "Dr. Syafiq Reza Basalamah, M.A",
    "thumbnailUrl": "https://img.youtube.com/vi/wN9Oy9GWVjA/maxresdefault.jpg",
    "videoUrl": "https://www.youtube.com/embed/wN9Oy9GWVjA?si=iXhgVxWAhOYNYYjb",
    "duration": 104,
    "category": "parenting"
  }
]
